{
    "data": [
        {
            "clock": 1751627271,
            "id": "1bac15d0-a58d-4659-ba6a-dfbe15ff3e7d",
            "updated_at": 1751627353
        },
        {
            "clock": 1751588252,
            "id": "96cbf9c9-f434-4307-9465-8c0676223db0",
            "updated_at": 1751588277
        },
        {
            "clock": 1751538607,
            "id": "9c525d96-a85e-4029-beb4-017875574195",
            "updated_at": 1751538634
        },
        {
            "clock": 1751452555,
            "id": "d4bf8678-24ea-4344-8c30-49f304622c9b",
            "updated_at": 1751452579
        },
        {
            "clock": 1751366375,
            "id": "e3877a12-82bc-4ce5-856d-341e2fe7a62e",
            "updated_at": 1751366398
        },
        {
            "clock": 1751333654,
            "id": "83c150cb-3a0c-4b43-a7d7-c7f9b4ec5a7d",
            "updated_at": 1751333678
        },
        {
            "clock": 1751279960,
            "id": "ca1a1c42-1305-48b8-9ec6-2de6ed912e80",
            "updated_at": 1751279986
        },
        {
            "clock": 1751199509,
            "id": "3af36d5e-1078-4b71-abd1-d06fdcbcd019",
            "updated_at": 1751199540
        },
        {
            "clock": 1751157761,
            "id": "0b12078f-1eea-4849-822d-1fd6aab4ae96",
            "updated_at": 1751157787
        },
        {
            "clock": 1751109018,
            "id": "f8a4983d-679a-4d36-8a69-22369d06c5e0",
            "updated_at": 1751109048
        }
    ],
    "paging": {
        "count": 1348,
        "page": 1,
        "limit": 10,
        "pages": 135
    }
}